[ {
	"type": "issue",
	"check_name": "Squiz WhiteSpace SuperfluousWhitespace EndLine",
	"description": "Whitespace found at end of line",
	"categories": ["Style"],
	"location": {
		"path": "/builds/grant36/gitlab-ci-playground/src/MyClass.php",
		"lines": {
			"begin": 3,
			"end": 3
		}
	},
	"remediation_points": 50000,
	"engine_name": "phpcodesniffer",
	"fingerprint": "b3709320540644b2fbe15775113985e4"
}, {
	"type": "issue",
	"check_name": "PSR2 Classes ClassDeclaration SpaceBeforeBrace",
	"description": "Expected 0 spaces before opening brace; 1 found",
	"categories": ["Style"],
	"location": {
		"path": "/builds/grant36/gitlab-ci-playground/src/MyClass.php",
		"lines": {
			"begin": 4,
			"end": 4
		}
	},
	"remediation_points": 350000,
	"engine_name": "phpcodesniffer",
	"fingerprint": "387b2534ebef372567176ad70b2d10e4"
}]
